<?xml version="1.0" encoding="UTF-8" standalone="no"?>
<!-- Created with Inkscape (http://www.inkscape.org/) -->

<svg
   xmlns:dc="http://purl.org/dc/elements/1.1/"
   xmlns:cc="http://creativecommons.org/ns#"
   xmlns:rdf="http://www.w3.org/1999/02/22-rdf-syntax-ns#"
   xmlns:svg="http://www.w3.org/2000/svg"
   xmlns="http://www.w3.org/2000/svg"
   xmlns:xlink="http://www.w3.org/1999/xlink"
   xmlns:sodipodi="http://sodipodi.sourceforge.net/DTD/sodipodi-0.dtd"
   xmlns:inkscape="http://www.inkscape.org/namespaces/inkscape"
   width="110"
   height="110"
   id="svg2"
   version="1.1"
   inkscape:version="0.48.3.1 r9886"
   sodipodi:docname="swords.svg"
   inkscape:export-filename="/home/jami/workspace/rogue-like/art/items/sword-basic-anim-s1.png"
   inkscape:export-xdpi="90"
   inkscape:export-ydpi="90">
  <defs
     id="defs4">
    <linearGradient
       id="linearGradient3843">
      <stop
         style="stop-color:#000000;stop-opacity:0;"
         offset="0"
         id="stop3845" />
      <stop
         id="stop3851"
         offset="0.5"
         style="stop-color:#000000;stop-opacity:0.49803922;" />
      <stop
         style="stop-color:#000000;stop-opacity:0;"
         offset="1"
         id="stop3847" />
    </linearGradient>
    <linearGradient
       id="linearGradient3783">
      <stop
         style="stop-color:#707070;stop-opacity:1;"
         offset="0"
         id="stop3785" />
      <stop
         style="stop-color:#a0a0a0;stop-opacity:1;"
         offset="1"
         id="stop3787" />
    </linearGradient>
    <linearGradient
       id="linearGradient3908">
      <stop
         style="stop-color:#000000;stop-opacity:0;"
         offset="0"
         id="stop3910" />
      <stop
         id="stop3922"
         offset="0.46210244"
         style="stop-color:#000000;stop-opacity:0.50427353;" />
      <stop
         style="stop-color:#000000;stop-opacity:0;"
         offset="1"
         id="stop3912" />
    </linearGradient>
    <linearGradient
       id="linearGradient3840">
      <stop
         style="stop-color:#d4aa00;stop-opacity:1;"
         offset="0"
         id="stop3842" />
      <stop
         style="stop-color:#aa8800;stop-opacity:1;"
         offset="1"
         id="stop3844" />
    </linearGradient>
    <linearGradient
       inkscape:collect="always"
       xlink:href="#linearGradient3840-3"
       id="linearGradient3846-7"
       x1="12.500638"
       y1="9.7043009"
       x2="-1.2910429"
       y2="23.495981"
       gradientUnits="userSpaceOnUse" />
    <linearGradient
       id="linearGradient3840-3">
      <stop
         style="stop-color:#d4aa00;stop-opacity:1;"
         offset="0"
         id="stop3842-4" />
      <stop
         style="stop-color:#aa8800;stop-opacity:1;"
         offset="1"
         id="stop3844-2" />
    </linearGradient>
    <linearGradient
       inkscape:collect="always"
       xlink:href="#linearGradient3783"
       id="linearGradient3789"
       x1="-703.79083"
       y1="735.40405"
       x2="-694.20001"
       y2="735.40405"
       gradientUnits="userSpaceOnUse"
       gradientTransform="matrix(0.70710678,-0.70710678,0.70710678,0.70710678,1.4285714,2.1428571)" />
    <linearGradient
       id="linearGradient3783-5">
      <stop
         style="stop-color:#707070;stop-opacity:1;"
         offset="0"
         id="stop3785-5" />
      <stop
         style="stop-color:#a0a0a0;stop-opacity:1;"
         offset="1"
         id="stop3787-3" />
    </linearGradient>
    <linearGradient
       inkscape:collect="always"
       xlink:href="#linearGradient3843"
       id="linearGradient3849"
       x1="28.05599"
       y1="1043.0752"
       x2="34.138004"
       y2="1025.9324"
       gradientUnits="userSpaceOnUse" />
    <linearGradient
       inkscape:collect="always"
       xlink:href="#linearGradient3783-8"
       id="linearGradient3789-2"
       x1="-703.79083"
       y1="735.40405"
       x2="-694.20001"
       y2="735.40405"
       gradientUnits="userSpaceOnUse"
       gradientTransform="matrix(0.70710678,-0.70710678,0.70710678,0.70710678,1.4285714,2.1428571)" />
    <linearGradient
       id="linearGradient3783-8">
      <stop
         style="stop-color:#707070;stop-opacity:1;"
         offset="0"
         id="stop3785-0" />
      <stop
         style="stop-color:#a0a0a0;stop-opacity:1;"
         offset="1"
         id="stop3787-7" />
    </linearGradient>
    <linearGradient
       inkscape:collect="always"
       xlink:href="#linearGradient3783-8-0"
       id="linearGradient3789-2-1"
       x1="-703.79083"
       y1="735.40405"
       x2="-694.20001"
       y2="735.40405"
       gradientUnits="userSpaceOnUse"
       gradientTransform="matrix(0.70710678,-0.70710678,0.70710678,0.70710678,1.4285714,2.1428571)" />
    <linearGradient
       id="linearGradient3783-8-0">
      <stop
         style="stop-color:#707070;stop-opacity:1;"
         offset="0"
         id="stop3785-0-9" />
      <stop
         style="stop-color:#a0a0a0;stop-opacity:1;"
         offset="1"
         id="stop3787-7-2" />
    </linearGradient>
    <linearGradient
       inkscape:collect="always"
       xlink:href="#linearGradient3783-0"
       id="linearGradient3789-9"
       x1="-703.79083"
       y1="735.40405"
       x2="-694.20001"
       y2="735.40405"
       gradientUnits="userSpaceOnUse"
       gradientTransform="matrix(0.70710678,-0.70710678,0.70710678,0.70710678,1.4285714,2.1428571)" />
    <linearGradient
       id="linearGradient3783-0">
      <stop
         style="stop-color:#707070;stop-opacity:1;"
         offset="0"
         id="stop3785-3" />
      <stop
         style="stop-color:#a0a0a0;stop-opacity:1;"
         offset="1"
         id="stop3787-4" />
    </linearGradient>
    <linearGradient
       inkscape:collect="always"
       xlink:href="#linearGradient3783-8-0"
       id="linearGradient4013"
       gradientUnits="userSpaceOnUse"
       gradientTransform="matrix(0.70710678,-0.70710678,0.70710678,0.70710678,1.4285714,2.1428571)"
       x1="-703.79083"
       y1="735.40405"
       x2="-694.20001"
       y2="735.40405" />
    <linearGradient
       inkscape:collect="always"
       xlink:href="#linearGradient3783-0-5"
       id="linearGradient3789-9-5"
       x1="-703.79083"
       y1="735.40405"
       x2="-694.20001"
       y2="735.40405"
       gradientUnits="userSpaceOnUse"
       gradientTransform="matrix(0.70710678,-0.70710678,0.70710678,0.70710678,1.4285714,2.1428571)" />
    <linearGradient
       id="linearGradient3783-0-5">
      <stop
         style="stop-color:#707070;stop-opacity:1;"
         offset="0"
         id="stop3785-3-7" />
      <stop
         style="stop-color:#a0a0a0;stop-opacity:1;"
         offset="1"
         id="stop3787-4-9" />
    </linearGradient>
    <linearGradient
       inkscape:collect="always"
       xlink:href="#linearGradient3783-0-5"
       id="linearGradient4132"
       gradientUnits="userSpaceOnUse"
       gradientTransform="matrix(0.70710678,-0.70710678,0.70710678,0.70710678,1.4285714,2.1428571)"
       x1="-703.79083"
       y1="735.40405"
       x2="-694.20001"
       y2="735.40405" />
    <linearGradient
       id="linearGradient3783-0-5-8">
      <stop
         style="stop-color:#707070;stop-opacity:1;"
         offset="0"
         id="stop3785-3-7-5" />
      <stop
         style="stop-color:#a0a0a0;stop-opacity:1;"
         offset="1"
         id="stop3787-4-9-0" />
    </linearGradient>
    <linearGradient
       inkscape:collect="always"
       xlink:href="#linearGradient3783-0-5-8-7"
       id="linearGradient4148-8-4"
       gradientUnits="userSpaceOnUse"
       gradientTransform="matrix(0.70710678,-0.70710678,0.70710678,0.70710678,1.4285714,2.1428571)"
       x1="-703.79083"
       y1="735.40405"
       x2="-694.20001"
       y2="735.40405" />
    <linearGradient
       id="linearGradient3783-0-5-8-7">
      <stop
         style="stop-color:#707070;stop-opacity:1;"
         offset="0"
         id="stop3785-3-7-5-2" />
      <stop
         style="stop-color:#a0a0a0;stop-opacity:1;"
         offset="1"
         id="stop3787-4-9-0-6" />
    </linearGradient>
    <linearGradient
       inkscape:collect="always"
       xlink:href="#linearGradient3783-0-5-0"
       id="linearGradient4148-4"
       gradientUnits="userSpaceOnUse"
       gradientTransform="matrix(0.70710678,-0.70710678,0.70710678,0.70710678,1.4285714,2.1428571)"
       x1="-703.79083"
       y1="735.40405"
       x2="-694.20001"
       y2="735.40405" />
    <linearGradient
       id="linearGradient3783-0-5-0">
      <stop
         style="stop-color:#707070;stop-opacity:1;"
         offset="0"
         id="stop3785-3-7-4" />
      <stop
         style="stop-color:#a0a0a0;stop-opacity:1;"
         offset="1"
         id="stop3787-4-9-1" />
    </linearGradient>
    <linearGradient
       inkscape:collect="always"
       xlink:href="#linearGradient3783-0-5-0-4"
       id="linearGradient4148-4-0"
       gradientUnits="userSpaceOnUse"
       gradientTransform="matrix(0.70710678,-0.70710678,0.70710678,0.70710678,1.4285714,2.1428571)"
       x1="-703.79083"
       y1="735.40405"
       x2="-694.20001"
       y2="735.40405" />
    <linearGradient
       id="linearGradient3783-0-5-0-4">
      <stop
         style="stop-color:#707070;stop-opacity:1;"
         offset="0"
         id="stop3785-3-7-4-6" />
      <stop
         style="stop-color:#a0a0a0;stop-opacity:1;"
         offset="1"
         id="stop3787-4-9-1-6" />
    </linearGradient>
    <linearGradient
       inkscape:collect="always"
       xlink:href="#linearGradient3783-0-5-0-4"
       id="linearGradient4804"
       gradientUnits="userSpaceOnUse"
       gradientTransform="matrix(0.70710678,-0.70710678,0.70710678,0.70710678,1.4285714,2.1428571)"
       x1="-703.79083"
       y1="735.40405"
       x2="-694.20001"
       y2="735.40405" />
  </defs>
  <sodipodi:namedview
     id="base"
     pagecolor="#000000"
     bordercolor="#666666"
     borderopacity="1.0"
     inkscape:pageopacity="0"
     inkscape:pageshadow="2"
     inkscape:zoom="3.959798"
     inkscape:cx="41.096733"
     inkscape:cy="63.104975"
     inkscape:document-units="px"
     inkscape:current-layer="layer2"
     showgrid="false"
     width="64px"
     inkscape:window-width="1920"
     inkscape:window-height="1020"
     inkscape:window-x="1920"
     inkscape:window-y="32"
     inkscape:window-maximized="1" />
  <metadata
     id="metadata7">
    <rdf:RDF>
      <cc:Work
         rdf:about="">
        <dc:format>image/svg+xml</dc:format>
        <dc:type
           rdf:resource="http://purl.org/dc/dcmitype/StillImage" />
        <dc:title></dc:title>
      </cc:Work>
    </rdf:RDF>
  </metadata>
  <g
     inkscape:label="Layer 1"
     inkscape:groupmode="layer"
     id="layer1"
     transform="translate(0,-942.36218)"
     style="display:none">
    <g
       transform="translate(-1.922829,1.805483)"
       id="g3791-9">
      <path
         style="color:#000000;fill:url(#linearGradient3849);fill-opacity:1;fill-rule:nonzero;stroke:none;stroke-width:0.81386328;marker:none;visibility:visible;display:inline;overflow:visible;enable-background:accumulate"
         d="m 2.6988471,1024.4111 3.0055506,3.844 39.7324173,13.7496 -3.172086,2.546 2.157778,0.7602 10.998506,-8.8995 -2.151573,-0.7446 -3.095529,2.5048 -39.732417,-13.7496 -7.7426417,-0.011 z m 48.0505849,15.8424 -1.500862,1.2145 9.257977,3.2173 1.524312,-1.2334 -9.281427,-3.1984 z"
         id="rect3004-0"
         inkscape:connector-curvature="0" />
    </g>
    <g
       id="g3791">
      <path
         sodipodi:nodetypes="cccccc"
         inkscape:connector-curvature="0"
         id="rect3004"
         d="m 9.1619154,1003.6564 -1.4861334,-7.97812 7.799586,1.6647 34.789349,34.78932 -6.313452,6.3135 z"
         style="color:#000000;fill:url(#linearGradient3789);fill-opacity:1;fill-rule:nonzero;stroke:#999999;stroke-width:1.15399003;marker:none;visibility:visible;display:inline;overflow:visible;enable-background:accumulate" />
      <path
         inkscape:connector-curvature="0"
         id="rect3006"
         d="m 39.57261,1042.475 14.647207,-14.6472 1.894035,1.894 -14.647207,14.6472 z"
         style="color:#000000;fill:#803300;fill-opacity:1;fill-rule:nonzero;stroke:#552200;stroke-width:1.15399003;stroke-linecap:butt;stroke-linejoin:miter;stroke-miterlimit:4;stroke-opacity:1;stroke-dashoffset:0;marker:none;visibility:visible;display:inline;overflow:visible;enable-background:accumulate" />
      <path
         inkscape:connector-curvature="0"
         id="rect3008"
         d="m 47.854069,1038.0682 2.020303,-2.0203 8.081219,8.0812 -2.020303,2.0203 z"
         style="color:#000000;fill:#803300;fill-opacity:1;fill-rule:nonzero;stroke:#552200;stroke-width:1.15399003;stroke-linecap:butt;stroke-linejoin:miter;stroke-miterlimit:4;stroke-opacity:1;stroke-dashoffset:0;marker:none;visibility:visible;display:inline;overflow:visible;enable-background:accumulate" />
      <path
         sodipodi:nodetypes="ccc"
         inkscape:connector-curvature="0"
         id="path3013"
         d="M 9.9999999,997.89789 13.75,999.68361 45.714286,1032.005"
         style="fill:none;stroke:#999999;stroke-width:1px;stroke-linecap:butt;stroke-linejoin:miter;stroke-opacity:1" />
    </g>
  </g>
  <g
     inkscape:groupmode="layer"
     id="layer4"
     inkscape:label="Sprite"
     style="display:none"
     transform="translate(0,-18)">
    <rect
       style="color:#000000;fill:#cccccc;fill-opacity:1;fill-rule:nonzero;stroke:none;stroke-width:1.15399003;marker:none;visibility:visible;display:inline;overflow:visible;enable-background:accumulate"
       id="rect4192"
       width="64"
       height="64"
       x="32"
       y="0" />
    <g
       style="display:inline"
       id="g4022"
       transform="translate(33.953772,0.07647592)">
      <path
         inkscape:connector-curvature="0"
         id="path3767-4-0"
         d="m 12.401824,19.03596 c -9.5964492,2.3991 0.883883,9.8489 0.883883,9.8489"
         style="fill:#ffeeaa;stroke:#000000;stroke-width:1px;stroke-linecap:butt;stroke-linejoin:miter;stroke-opacity:1" />
      <path
         inkscape:connector-curvature="0"
         id="path3767-5"
         d="m 47.69063,19.79366 c 9.596452,2.3991 -0.883883,9.8489 -0.883883,9.8489"
         style="fill:#ffeeaa;stroke:#000000;stroke-width:1px;stroke-linecap:butt;stroke-linejoin:miter;stroke-opacity:1" />
      <path
         style="fill:#0000ff;stroke:none"
         d="m 19.343225,50.918895 c 6.608081,1.6707 13.216162,1.3527 19.824243,0 l 3.574612,-10.089269 -1.38896,-6.439723 -3.914341,1.199557 -16.793786,-0.12627 -2.714785,-1.388959 -2.714785,6.12405 z"
         id="path3858-9-0-0"
         inkscape:connector-curvature="0"
         sodipodi:nodetypes="ccccccccc" />
      <g
         style="display:inline"
         id="g3956">
        <path
           style="fill:#cccccc;stroke:#000000;stroke-width:1px;stroke-linecap:butt;stroke-linejoin:miter;stroke-opacity:1"
           d="m 19.343225,51.41327 c 6.608081,1.6707 13.216162,1.3527 19.824243,0 l 3.574612,-10.583644 -1.38896,-6.439723 -3.914341,1.199557 0.126274,1.894036 -16.98319,-0.252539 0.06313,-1.767767 -2.714785,-1.388959 -2.714785,6.12405 z"
           id="path3858-9-0"
           inkscape:connector-curvature="0"
           sodipodi:nodetypes="ccccccccccc" />
        <path
           style="fill:none;stroke:#999999;stroke-width:1px;stroke-linecap:butt;stroke-linejoin:miter;stroke-opacity:1"
           d="m 27.803252,45.363095 c 0,0 -4.293148,2.7779 -11.995561,-2.2729"
           id="path3887-3"
           inkscape:connector-curvature="0" />
        <path
           style="fill:none;stroke:#999999;stroke-width:1px;stroke-linecap:butt;stroke-linejoin:miter;stroke-opacity:1"
           d="m 41.945388,44.226695 c 0,0 -9.091373,3.6618 -11.111678,1.1364"
           id="path3889-0"
           inkscape:connector-curvature="0" />
        <path
           style="fill:none;stroke:#999999;stroke-width:1px;stroke-linecap:butt;stroke-linejoin:miter;stroke-opacity:1"
           d="m 29.318481,38.544595 c 0,0 -1.010153,5.6821 0.126269,6.0609"
           id="path3885-9"
           inkscape:connector-curvature="0" />
        <path
           sodipodi:nodetypes="cccc"
           inkscape:connector-curvature="0"
           id="path4020"
           d="m 25.089286,52.214286 c 0.116739,-3.408051 0.319783,-4.888951 3.928571,-6.25 3.442521,1.604644 3.1403,2.698669 3.21429,6.25 z"
           style="fill:#aa8800;stroke:#999999;stroke-width:1px;stroke-linecap:butt;stroke-linejoin:miter;stroke-opacity:1" />
      </g>
      <path
         sodipodi:nodetypes="cccccccccc"
         inkscape:connector-curvature="0"
         id="path3891-4-1"
         d="m 27.424444,63.462395 -11.995561,0.1263 c 0,0 1.26269,-3.283 5.293148,-3.2199 L 18.575457,51.41327 c 7.24958,1.71245 13.857661,1.426 21.170374,0 l -2.08344,8.892382 c 4.030459,-0.06311 5.293149,3.219885 5.293149,3.219885 L 30.959979,63.399268 29.192211,59.895314 z"
         style="fill:#0000ff;stroke:#000000;stroke-width:1px;stroke-linecap:butt;stroke-linejoin:miter;stroke-opacity:1" />
      <path
         sodipodi:nodetypes="cscscc"
         inkscape:connector-curvature="0"
         id="path3838-57"
         d="m 21.070382,31.347195 c 0,0 -9.470181,-3.0304 -10.606603,4.4194 -1.1364209,7.4499 4.293149,17.804 4.293149,17.804 0,0 6.81853,6.1872 8.081221,-0.3788 1.26269,-6.566 -4.545687,-3.7881 -4.545687,-3.7881 0,0 1.262691,-6.566 -1.010152,-10.8591"
         style="fill:#ffeeaa;stroke:#000000;stroke-width:1px;stroke-linecap:butt;stroke-linejoin:miter;stroke-opacity:1" />
      <path
         sodipodi:nodetypes="cscscc"
         inkscape:connector-curvature="0"
         id="path3838-5-9"
         d="m 37.199387,32.099395 c 0,0 9.470181,-3.0305 10.606602,4.4194 1.136422,7.4499 -4.293148,17.804 -4.293148,17.804 0,0 -6.81853,6.1872 -8.081221,-0.3788 -1.26269,-6.566 4.545687,-3.7881 4.545687,-3.7881 0,0 -1.262691,-6.566 1.010152,-10.8592"
         style="fill:#ffeeaa;stroke:#000000;stroke-width:1px;stroke-linecap:butt;stroke-linejoin:miter;stroke-opacity:1" />
      <path
         id="path3755-1"
         d="m 50.255091,24.73032 c 0,6.485492 -9.186546,11.743023 -20.518725,11.743023 -11.332178,0 -20.5187242,-5.257531 -20.5187242,-11.743023 0,-6.485492 9.1865462,-11.743023 20.5187242,-11.743023 11.332179,0 20.518725,5.257531 20.518725,11.743023 z"
         style="color:#000000;fill:#ffeeaa;stroke:#000000;stroke-width:0.99752522;stroke-miterlimit:4;marker:none;visibility:visible;display:inline;overflow:visible;enable-background:accumulate"
         transform="matrix(0.9075714,0,0,1.1073156,3.0158771,-3.6944052)"
         inkscape:connector-curvature="0" />
      <g
         id="g3796-4-4"
         transform="matrix(-1,0,0,1,62.330674,-989.43172)">
        <path
           sodipodi:nodetypes="ccccc"
           style="color:#000000;fill:#ffffff;fill-opacity:1;fill-rule:nonzero;stroke:none;stroke-width:1px;marker:none;visibility:visible;display:inline;overflow:visible;enable-background:accumulate"
           d="m 34.850263,25.614203 7.323606,0 c 0,0 4.798224,-6.313453 -1.38896,-6.69226 -2.166899,0.589975 -3.654589,1.85916 -4.987628,3.282995 -0.672484,1.076953 -1.267457,2.166825 -0.947018,3.409265 z"
           id="path3787-9-8"
           inkscape:connector-curvature="0"
           transform="translate(0,988.36218)" />
        <path
           style="fill:none;stroke:#000000;stroke-width:1px;stroke-linecap:butt;stroke-linejoin:miter;stroke-opacity:1"
           d="m 33.693537,1010.3349 c 0,0 3.535534,-5.3033 6.944798,-4.672"
           id="path3789-3-1"
           inkscape:connector-curvature="0" />
        <path
           inkscape:connector-curvature="0"
           id="path3794-6-3"
           d="m 39.238111,1011.7035 c 0,0.7323 -0.692524,1.3259 -1.546797,1.3259 -0.85427,0 -1.546794,-0.5936 -1.546794,-1.3259 0,-0.7322 0.692524,-1.3258 1.546794,-1.3258 0.854273,0 1.546797,0.5936 1.546797,1.3258 z"
           style="color:#000000;fill:#502d16;stroke:none;stroke-width:2;marker:none;visibility:visible;display:inline;overflow:visible;enable-background:accumulate" />
        <path
           style="fill:none;stroke:#000000;stroke-width:1px;stroke-linecap:butt;stroke-linejoin:miter;stroke-opacity:1"
           d="m 34.850263,1013.9764 7.323606,0 c 0,0 4.798224,-6.3135 -1.38896,-6.6923"
           id="path3787-9-8-5"
           inkscape:connector-curvature="0" />
      </g>
      <path
         inkscape:connector-curvature="0"
         id="path3828-5"
         d="m 29.697288,24.528695 c 0,0 -1.262691,3.9143 -2.146574,3.6618 l 2.248786,0.07536"
         style="fill:none;stroke:#000000;stroke-width:1px;stroke-linecap:butt;stroke-linejoin:miter;stroke-opacity:1" />
      <path
         inkscape:connector-curvature="0"
         id="path3830-8"
         d="m 34.242975,30.589595 c -1.010153,1.389 -9.217642,1.389 -9.217642,1.389 0,0 8.712565,4.1668 8.712565,-0.8839"
         style="fill:#aa0000;stroke:#000000;stroke-width:1px;stroke-linecap:butt;stroke-linejoin:miter;stroke-opacity:1" />
      <g
         id="g3796-4-4-4"
         transform="translate(-3.1495567,-989.43172)">
        <path
           sodipodi:nodetypes="ccccc"
           style="color:#000000;fill:#ffffff;fill-opacity:1;fill-rule:nonzero;stroke:none;stroke-width:1px;marker:none;visibility:visible;display:inline;overflow:visible;enable-background:accumulate"
           d="m 34.850263,25.614203 7.323606,0 c 0,0 4.798224,-6.313453 -1.38896,-6.69226 -2.166899,0.589975 -3.654589,1.85916 -4.987628,3.282995 -0.672484,1.076953 -1.267457,2.166825 -0.947018,3.409265 z"
           id="path3787-9-8-3"
           inkscape:connector-curvature="0"
           transform="translate(0,988.36218)" />
        <path
           style="fill:none;stroke:#000000;stroke-width:1px;stroke-linecap:butt;stroke-linejoin:miter;stroke-opacity:1"
           d="m 33.693537,1010.3349 c 0,0 3.535534,-5.3033 6.944798,-4.672"
           id="path3789-3-1-0"
           inkscape:connector-curvature="0" />
        <path
           inkscape:connector-curvature="0"
           id="path3794-6-3-6"
           d="m 39.238111,1011.7035 c 0,0.7323 -0.692524,1.3259 -1.546797,1.3259 -0.85427,0 -1.546794,-0.5936 -1.546794,-1.3259 0,-0.7322 0.692524,-1.3258 1.546794,-1.3258 0.854273,0 1.546797,0.5936 1.546797,1.3258 z"
           style="color:#000000;fill:#502d16;stroke:none;stroke-width:2;marker:none;visibility:visible;display:inline;overflow:visible;enable-background:accumulate" />
        <path
           style="fill:none;stroke:#000000;stroke-width:1px;stroke-linecap:butt;stroke-linejoin:miter;stroke-opacity:1"
           d="m 34.850263,1013.9764 7.323606,0 c 0,0 4.798224,-6.3135 -1.38896,-6.6923"
           id="path3787-9-8-5-8"
           inkscape:connector-curvature="0" />
      </g>
      <path
         sodipodi:nodetypes="ccccccccccccccccc"
         inkscape:connector-curvature="0"
         id="rect3935"
         d="M 14.710346,7.9365337 C 19.718711,1.415964 26.381668,1.7205886 32.656337,0.42352408 29.409251,2.3473647 26.641968,4.662242 26.295534,7.2420538 24.511834,2.5011396 37.766838,3.0517233 43.925852,0.54979341 41.244989,3.7605342 38.037203,6.9273647 39.242058,10.461915 34.932218,4.0403369 45.895616,4.1980002 51.541455,2.0650223 49.742106,5.5584665 45.400768,9.0519107 47.362738,12.545355 c 2.079796,3.742376 1.930182,5.863363 2.261006,8.333759 l -3.164619,-1.065396 c -2.867819,-1.426565 -4.884571,-3.36377 -6.068807,-5.800485 -0.916529,3.415953 -5.447696,5.11971 -9.422829,7.086851 1.086892,-2.948758 1.852827,-6.004502 1.43631,-9.454396 -2.463305,2.365793 -4.064434,4.551965 -10.369847,7.718197 0.251834,-2.020305 0.901711,-4.040611 -0.441942,-6.060916 l -7.007933,5.934647 C 13.159362,20.192422 11.458276,21.433 9.028238,21.38419 10.411972,16.716073 11.546594,11.957371 14.710346,7.9365337 z"
         style="color:#000000;fill:#502d16;fill-opacity:1;fill-rule:nonzero;stroke:#28170b;stroke-width:1px;marker:none;visibility:visible;display:inline;overflow:visible;enable-background:accumulate" />
      <path
         sodipodi:nodetypes="cccc"
         inkscape:connector-curvature="0"
         id="path3998"
         d="m 40.982143,39.535714 0.803572,-5.892857 -4.196429,1.875 0,2.053571"
         style="fill:#aa8800;stroke:#000000;stroke-width:1px;stroke-linecap:butt;stroke-linejoin:miter;stroke-opacity:1" />
      <path
         sodipodi:nodetypes="cccc"
         inkscape:connector-curvature="0"
         id="path3998-9"
         d="m 17.276786,38.821428 -0.803572,-5.892857 4.196429,1.875 0,2.053571"
         style="fill:#aa8800;stroke:#000000;stroke-width:1px;stroke-linecap:butt;stroke-linejoin:miter;stroke-opacity:1" />
    </g>
  </g>
  <g
     inkscape:groupmode="layer"
     id="layer5"
     inkscape:label="char-anim"
     style="display:none"
     transform="translate(0,-18)">
    <g
       style="display:inline"
       id="g3584"
       transform="translate(-92.14286,97.43829)">
      <rect
         y="-79.438286"
         x="115.14286"
         height="64"
         width="64"
         id="rect3581"
         style="color:#000000;fill:#cccccc;fill-opacity:1;fill-rule:nonzero;stroke:none;stroke-width:1;marker:none;visibility:visible;display:inline;overflow:visible;enable-background:accumulate" />
      <path
         sodipodi:nodetypes="ccccccccc"
         inkscape:connector-curvature="0"
         id="path3372"
         d="m 140.43985,-28.5255 c 6.60809,1.6707 13.21617,1.3527 19.82425,0 l 3.57461,-10.089269 -1.38896,-6.439723 -3.91434,1.199557 -16.79379,-0.12627 -2.71478,-1.388959 -2.71479,6.12405 z"
         style="fill:#0000ff;stroke:none;display:inline" />
      <path
         style="fill:#ffeeaa;stroke:#000000;stroke-width:1px;stroke-linecap:butt;stroke-linejoin:miter;stroke-opacity:1;display:inline"
         d="m 156.29602,-45.345 c 0,0 9.47018,-3.0305 10.6066,4.4194 1.13642,7.4499 -4.29315,17.804 -4.29315,17.804 0,0 -6.81853,6.1872 -8.08122,-0.3788 -1.26269,-6.566 4.54569,-3.7881 4.54569,-3.7881 0,0 -1.26269,-6.566 1.01015,-10.8592"
         id="path3390"
         inkscape:connector-curvature="0"
         sodipodi:nodetypes="cscscc" />
      <path
         style="fill:#0000ff;stroke:#000000;stroke-width:1px;stroke-linecap:butt;stroke-linejoin:miter;stroke-opacity:1;display:inline"
         d="m 151.99347,-15.982 6.28128,-0.05227 0.42114,-3.041329 2.14657,-8.955525 c -7.24958,1.71245 -13.85766,1.426 -21.17037,0 l 2.08344,8.892382 -1.54315,3.219885 9.67413,-0.12627 0.3392,-3.503954 z"
         id="path3388"
         inkscape:connector-curvature="0"
         sodipodi:nodetypes="cccccccccc" />
      <g
         transform="translate(121.09663,-77.444394)"
         id="g3376"
         style="display:inline">
        <path
           sodipodi:nodetypes="ccccccccccc"
           inkscape:connector-curvature="0"
           id="path3378"
           d="m 19.343225,51.41327 c 6.608081,1.6707 13.216162,1.3527 19.824243,0 l 3.574612,-10.583644 -1.38896,-6.439723 -3.914341,1.199557 0.126274,1.894036 -16.98319,-0.252539 0.06313,-1.767767 -2.714785,-1.388959 -2.714785,6.12405 z"
           style="fill:#cccccc;stroke:#000000;stroke-width:1px;stroke-linecap:butt;stroke-linejoin:miter;stroke-opacity:1" />
        <path
           inkscape:connector-curvature="0"
           id="path3380"
           d="m 27.803252,45.363095 c 0,0 -4.293148,2.7779 -11.995561,-2.2729"
           style="fill:none;stroke:#999999;stroke-width:1px;stroke-linecap:butt;stroke-linejoin:miter;stroke-opacity:1" />
        <path
           inkscape:connector-curvature="0"
           id="path3382"
           d="m 41.945388,44.226695 c 0,0 -9.091373,3.6618 -11.111678,1.1364"
           style="fill:none;stroke:#999999;stroke-width:1px;stroke-linecap:butt;stroke-linejoin:miter;stroke-opacity:1" />
        <path
           inkscape:connector-curvature="0"
           id="path3384"
           d="m 29.318481,38.544595 c 0,0 -1.010153,5.6821 0.126269,6.0609"
           style="fill:none;stroke:#999999;stroke-width:1px;stroke-linecap:butt;stroke-linejoin:miter;stroke-opacity:1" />
        <path
           style="fill:#aa8800;stroke:#999999;stroke-width:1px;stroke-linecap:butt;stroke-linejoin:miter;stroke-opacity:1"
           d="m 25.089286,52.214286 c 0.116739,-3.408051 0.319783,-4.888951 3.928571,-6.25 3.442521,1.604644 3.1403,2.698669 3.21429,6.25 z"
           id="path3386"
           inkscape:connector-curvature="0"
           sodipodi:nodetypes="cccc" />
      </g>
      <path
         style="fill:#aa8800;stroke:#000000;stroke-width:1px;stroke-linecap:butt;stroke-linejoin:miter;stroke-opacity:1;display:inline"
         d="m 162.07877,-39.908681 0.80357,-5.892857 -4.19642,1.875 0,2.053571"
         id="path3420"
         inkscape:connector-curvature="0"
         sodipodi:nodetypes="cccc" />
      <path
         style="fill:#aa8800;stroke:#000000;stroke-width:1px;stroke-linecap:butt;stroke-linejoin:miter;stroke-opacity:1;display:inline"
         d="m 138.37342,-40.622967 -0.80358,-5.892857 4.19643,1.875 0,2.053571"
         id="path3422"
         inkscape:connector-curvature="0"
         sodipodi:nodetypes="cccc" />
      <path
         style="fill:#ffeeaa;stroke:#000000;stroke-width:1px;stroke-linecap:butt;stroke-linejoin:miter;stroke-opacity:1;display:inline"
         d="m 144.16701,-46.0972 c 0,0 -9.4702,-3.030402 -10.6066,4.4194 -0.56821,3.72495 2.65165,10.638197 10.93806,15.483785 8.2864,4.845588 15.32591,4.971866 15.32591,4.971866 0,0 6.81853,6.1872 8.08122,-0.3788 1.26269,-6.566 -6.06092,-4.671983 -6.06092,-4.671983 0.12553,-0.753193 -8.36031,-0.853005 -12.3428,-5.145464 -3.85735,-4.157576 -4.0145,-7.103109 -6.59756,-8.744095"
         id="path3374"
         inkscape:connector-curvature="0"
         sodipodi:nodetypes="csscscsc" />
      <g
         transform="translate(119.14286,-75.438285)"
         id="g3442"
         style="display:inline">
        <path
           style="fill:#ffeeaa;stroke:#000000;stroke-width:1px;stroke-linecap:butt;stroke-linejoin:miter;stroke-opacity:1;display:inline"
           d="m 14.355596,19.02985 c -9.5964488,2.3991 0.883883,9.8489 0.883883,9.8489"
           id="path3184"
           inkscape:connector-curvature="0" />
        <path
           style="fill:#ffeeaa;stroke:#000000;stroke-width:1px;stroke-linecap:butt;stroke-linejoin:miter;stroke-opacity:1;display:inline"
           d="m 49.644402,19.78755 c 9.596452,2.3991 -0.883883,9.8489 -0.883883,9.8489"
           id="path3186"
           inkscape:connector-curvature="0" />
        <g
           style="display:inline"
           transform="matrix(-1,0,0,1,64.284446,-989.43783)"
           id="g3210">
          <path
             transform="translate(0,988.36218)"
             inkscape:connector-curvature="0"
             id="path3212"
             d="m 34.850263,25.614203 7.323606,0 c 0,0 4.798224,-6.313453 -1.38896,-6.69226 -2.166899,0.589975 -3.654589,1.85916 -4.987628,3.282995 -0.672484,1.076953 -1.267457,2.166825 -0.947018,3.409265 z"
             style="color:#000000;fill:#ffffff;fill-opacity:1;fill-rule:nonzero;stroke:none;stroke-width:1px;marker:none;visibility:visible;display:inline;overflow:visible;enable-background:accumulate"
             sodipodi:nodetypes="ccccc" />
          <path
             inkscape:connector-curvature="0"
             id="path3214"
             d="m 33.693537,1010.3349 c 0,0 3.535534,-5.3033 6.944798,-4.672"
             style="fill:none;stroke:#000000;stroke-width:1px;stroke-linecap:butt;stroke-linejoin:miter;stroke-opacity:1" />
          <path
             style="color:#000000;fill:#502d16;stroke:none;stroke-width:2;marker:none;visibility:visible;display:inline;overflow:visible;enable-background:accumulate"
             d="m 39.238111,1011.7035 c 0,0.7323 -0.692524,1.3259 -1.546797,1.3259 -0.85427,0 -1.546794,-0.5936 -1.546794,-1.3259 0,-0.7322 0.692524,-1.3258 1.546794,-1.3258 0.854273,0 1.546797,0.5936 1.546797,1.3258 z"
             id="path3216"
             inkscape:connector-curvature="0" />
          <path
             inkscape:connector-curvature="0"
             id="path3218"
             d="m 34.850263,1013.9764 7.323606,0 c 0,0 4.798224,-6.3135 -1.38896,-6.6923"
             style="fill:none;stroke:#000000;stroke-width:1px;stroke-linecap:butt;stroke-linejoin:miter;stroke-opacity:1" />
        </g>
        <path
           style="fill:none;stroke:#000000;stroke-width:1px;stroke-linecap:butt;stroke-linejoin:miter;stroke-opacity:1;display:inline"
           d="m 31.65106,24.522585 c 0,0 -1.262691,3.9143 -2.146574,3.6618 l 2.248786,0.07536"
           id="path3220"
           inkscape:connector-curvature="0" />
        <path
           style="fill:#aa0000;stroke:#000000;stroke-width:1px;stroke-linecap:butt;stroke-linejoin:miter;stroke-opacity:1;display:inline"
           d="m 36.196747,30.583485 c -1.010153,1.389 -9.217642,1.389 -9.217642,1.389 0,0 8.712565,4.1668 8.712565,-0.8839"
           id="path3222"
           inkscape:connector-curvature="0" />
        <g
           style="display:inline"
           transform="translate(-1.1957843,-989.43783)"
           id="g3224">
          <path
             transform="translate(0,988.36218)"
             inkscape:connector-curvature="0"
             id="path3226"
             d="m 34.850263,25.614203 7.323606,0 c 0,0 4.798224,-6.313453 -1.38896,-6.69226 -2.166899,0.589975 -3.654589,1.85916 -4.987628,3.282995 -0.672484,1.076953 -1.267457,2.166825 -0.947018,3.409265 z"
             style="color:#000000;fill:#ffffff;fill-opacity:1;fill-rule:nonzero;stroke:none;stroke-width:1px;marker:none;visibility:visible;display:inline;overflow:visible;enable-background:accumulate"
             sodipodi:nodetypes="ccccc" />
          <path
             inkscape:connector-curvature="0"
             id="path3228"
             d="m 33.693537,1010.3349 c 0,0 3.535534,-5.3033 6.944798,-4.672"
             style="fill:none;stroke:#000000;stroke-width:1px;stroke-linecap:butt;stroke-linejoin:miter;stroke-opacity:1" />
          <path
             style="color:#000000;fill:#502d16;stroke:none;stroke-width:2;marker:none;visibility:visible;display:inline;overflow:visible;enable-background:accumulate"
             d="m 39.238111,1011.7035 c 0,0.7323 -0.692524,1.3259 -1.546797,1.3259 -0.85427,0 -1.546794,-0.5936 -1.546794,-1.3259 0,-0.7322 0.692524,-1.3258 1.546794,-1.3258 0.854273,0 1.546797,0.5936 1.546797,1.3258 z"
             id="path3230"
             inkscape:connector-curvature="0" />
          <path
             inkscape:connector-curvature="0"
             id="path3232"
             d="m 34.850263,1013.9764 7.323606,0 c 0,0 4.798224,-6.3135 -1.38896,-6.6923"
             style="fill:none;stroke:#000000;stroke-width:1px;stroke-linecap:butt;stroke-linejoin:miter;stroke-opacity:1" />
        </g>
        <path
           inkscape:connector-curvature="0"
           id="path3368"
           d="m 14.355596,19.02985 c -9.5964488,2.3991 0.883883,9.8489 0.883883,9.8489"
           style="fill:#ffeeaa;stroke:#000000;stroke-width:1px;stroke-linecap:butt;stroke-linejoin:miter;stroke-opacity:1" />
        <path
           inkscape:connector-curvature="0"
           id="path3370"
           d="m 49.644402,19.78755 c 9.596452,2.3991 -0.883883,9.8489 -0.883883,9.8489"
           style="fill:#ffeeaa;stroke:#000000;stroke-width:1px;stroke-linecap:butt;stroke-linejoin:miter;stroke-opacity:1" />
        <path
           id="path3392"
           d="m 50.579733,23.683754 c 0,7.181487 -8.337447,13.003233 -18.622208,13.003233 -10.284761,0 -18.622207,-5.821746 -18.622207,-13.003233 0,-7.181486 8.337446,-13.003232 18.622207,-13.003232 10.284761,0 18.622208,5.821746 18.622208,13.003232 z"
           style="color:#000000;fill:#ffeeaa;stroke:#000000;stroke-width:1;stroke-miterlimit:4;marker:none;visibility:visible;display:inline;overflow:visible;enable-background:accumulate"
           inkscape:connector-curvature="0" />
        <g
           id="g3394"
           transform="matrix(-1,0,0,1,64.284446,-989.43783)">
          <path
             sodipodi:nodetypes="ccccc"
             style="color:#000000;fill:#ffffff;fill-opacity:1;fill-rule:nonzero;stroke:none;stroke-width:1px;marker:none;visibility:visible;display:inline;overflow:visible;enable-background:accumulate"
             d="m 34.850263,25.614203 7.323606,0 c 0,0 4.798224,-6.313453 -1.38896,-6.69226 -2.166899,0.589975 -3.654589,1.85916 -4.987628,3.282995 -0.672484,1.076953 -1.267457,2.166825 -0.947018,3.409265 z"
             id="path3396"
             inkscape:connector-curvature="0"
             transform="translate(0,988.36218)" />
          <path
             style="fill:none;stroke:#000000;stroke-width:1px;stroke-linecap:butt;stroke-linejoin:miter;stroke-opacity:1"
             d="m 33.693537,1010.3349 c 0,0 3.535534,-5.3033 6.944798,-4.672"
             id="path3398"
             inkscape:connector-curvature="0" />
          <path
             inkscape:connector-curvature="0"
             id="path3400"
             d="m 39.238111,1011.7035 c 0,0.7323 -0.692524,1.3259 -1.546797,1.3259 -0.85427,0 -1.546794,-0.5936 -1.546794,-1.3259 0,-0.7322 0.692524,-1.3258 1.546794,-1.3258 0.854273,0 1.546797,0.5936 1.546797,1.3258 z"
             style="color:#000000;fill:#502d16;stroke:none;stroke-width:2;marker:none;visibility:visible;display:inline;overflow:visible;enable-background:accumulate" />
          <path
             style="fill:none;stroke:#000000;stroke-width:1px;stroke-linecap:butt;stroke-linejoin:miter;stroke-opacity:1"
             d="m 34.850263,1013.9764 7.323606,0 c 0,0 4.798224,-6.3135 -1.38896,-6.6923"
             id="path3402"
             inkscape:connector-curvature="0" />
        </g>
        <path
           inkscape:connector-curvature="0"
           id="path3404"
           d="m 31.65106,24.522585 c 0,0 -1.262691,3.9143 -2.146574,3.6618 l 2.248786,0.07536"
           style="fill:none;stroke:#000000;stroke-width:1px;stroke-linecap:butt;stroke-linejoin:miter;stroke-opacity:1" />
        <path
           inkscape:connector-curvature="0"
           id="path3406"
           d="m 36.196747,30.583485 c -1.010153,1.389 -9.217642,1.389 -9.217642,1.389 0,0 8.712565,4.1668 8.712565,-0.8839"
           style="fill:#aa0000;stroke:#000000;stroke-width:1px;stroke-linecap:butt;stroke-linejoin:miter;stroke-opacity:1" />
        <g
           id="g3408"
           transform="translate(-1.1957843,-989.43783)">
          <path
             sodipodi:nodetypes="ccccc"
             style="color:#000000;fill:#ffffff;fill-opacity:1;fill-rule:nonzero;stroke:none;stroke-width:1px;marker:none;visibility:visible;display:inline;overflow:visible;enable-background:accumulate"
             d="m 34.850263,25.614203 7.323606,0 c 0,0 4.798224,-6.313453 -1.38896,-6.69226 -2.166899,0.589975 -3.654589,1.85916 -4.987628,3.282995 -0.672484,1.076953 -1.267457,2.166825 -0.947018,3.409265 z"
             id="path3410"
             inkscape:connector-curvature="0"
             transform="translate(0,988.36218)" />
          <path
             style="fill:none;stroke:#000000;stroke-width:1px;stroke-linecap:butt;stroke-linejoin:miter;stroke-opacity:1"
             d="m 33.693537,1010.3349 c 0,0 3.535534,-5.3033 6.944798,-4.672"
             id="path3412"
             inkscape:connector-curvature="0" />
          <path
             inkscape:connector-curvature="0"
             id="path3414"
             d="m 39.238111,1011.7035 c 0,0.7323 -0.692524,1.3259 -1.546797,1.3259 -0.85427,0 -1.546794,-0.5936 -1.546794,-1.3259 0,-0.7322 0.692524,-1.3258 1.546794,-1.3258 0.854273,0 1.546797,0.5936 1.546797,1.3258 z"
             style="color:#000000;fill:#502d16;stroke:none;stroke-width:2;marker:none;visibility:visible;display:inline;overflow:visible;enable-background:accumulate" />
          <path
             style="fill:none;stroke:#000000;stroke-width:1px;stroke-linecap:butt;stroke-linejoin:miter;stroke-opacity:1"
             d="m 34.850263,1013.9764 7.323606,0 c 0,0 4.798224,-6.3135 -1.38896,-6.6923"
             id="path3416"
             inkscape:connector-curvature="0" />
        </g>
        <path
           sodipodi:nodetypes="ccccccccccccccccc"
           inkscape:connector-curvature="0"
           id="path3418"
           d="M 16.664118,7.9304242 C 21.672483,1.4098545 28.33544,1.7144791 34.610109,0.41741454 31.363023,2.3412552 28.59574,4.6561325 28.249306,7.2359443 26.465606,2.4950301 39.72061,3.0456138 45.879624,0.54368387 43.198761,3.7544247 39.990975,6.9212552 41.19583,10.455805 36.88599,4.0342274 47.849388,4.1918907 53.495227,2.0589128 51.695878,5.552357 47.35454,9.0458012 49.31651,12.539245 c 2.079796,3.742376 1.930182,5.863363 2.261006,8.333759 l -3.164619,-1.065396 c -2.867819,-1.426565 -4.884571,-3.36377 -6.068807,-5.800485 -0.916529,3.415953 -5.447696,5.11971 -9.422829,7.086851 1.086892,-2.948758 1.852827,-6.004502 1.43631,-9.454396 -2.463305,2.365793 -4.064434,4.551965 -10.369847,7.718197 0.251834,-2.020305 0.901711,-4.040611 -0.441942,-6.060916 l -7.007933,5.934647 c -1.424715,0.954806 -3.125801,2.195384 -5.555839,2.146574 1.383734,-4.668117 2.518356,-9.426819 5.682108,-13.4476558 z"
           style="color:#000000;fill:#502d16;fill-opacity:1;fill-rule:nonzero;stroke:#28170b;stroke-width:1px;marker:none;visibility:visible;display:inline;overflow:visible;enable-background:accumulate" />
      </g>
      <path
         sodipodi:nodetypes="cccc"
         inkscape:connector-curvature="0"
         id="path3424"
         d="m 149.4074,-16.688285 -1.60714,-2.142857 -3.75,0 -3.03571,2.321429"
         style="fill:#000080;stroke:#000000;stroke-width:1px;stroke-linecap:butt;stroke-linejoin:miter;stroke-opacity:1;display:inline" />
      <path
         inkscape:connector-curvature="0"
         id="path3426"
         d="m 157.26455,-18.831142 -4.82143,0.357143"
         style="fill:none;stroke:#000080;stroke-width:1px;stroke-linecap:butt;stroke-linejoin:miter;stroke-opacity:1;display:inline" />
      <path
         style="fill:#0000ff;stroke:none;display:inline"
         d="m 136.43985,-28.5255 c 6.60809,1.6707 13.21617,1.3527 19.82425,0 l 3.57461,-10.089269 -1.38896,-6.439723 -3.91434,1.199557 -16.79379,-0.12627 -2.71478,-1.388959 -2.71479,6.12405 z"
         id="path3687"
         inkscape:connector-curvature="0"
         sodipodi:nodetypes="ccccccccc" />
      <path
         sodipodi:nodetypes="cscscc"
         inkscape:connector-curvature="0"
         id="path3689"
         d="m 152.29602,-45.345 c 0,0 9.47018,-3.0305 10.6066,4.4194 1.13642,7.4499 -4.29315,17.804 -4.29315,17.804 0,0 -6.81853,6.1872 -8.08122,-0.3788 -1.26269,-6.566 4.54569,-3.7881 4.54569,-3.7881 0,0 -1.26269,-6.566 1.01015,-10.8592"
         style="fill:#ffeeaa;stroke:#000000;stroke-width:1px;stroke-linecap:butt;stroke-linejoin:miter;stroke-opacity:1;display:inline" />
      <path
         sodipodi:nodetypes="cccccccccc"
         inkscape:connector-curvature="0"
         id="path3691"
         d="m 147.99347,-15.982 6.28128,-0.05227 0.42114,-3.041329 2.14657,-8.955525 c -7.24958,1.71245 -13.85766,1.426 -21.17037,0 l 2.08344,8.892382 -1.54315,3.219885 9.67413,-0.12627 0.3392,-3.503954 z"
         style="fill:#0000ff;stroke:#000000;stroke-width:1px;stroke-linecap:butt;stroke-linejoin:miter;stroke-opacity:1;display:inline" />
      <g
         style="display:inline"
         id="g3693"
         transform="translate(117.09663,-77.444394)">
        <path
           style="fill:#cccccc;stroke:#000000;stroke-width:1px;stroke-linecap:butt;stroke-linejoin:miter;stroke-opacity:1"
           d="m 19.343225,51.41327 c 6.608081,1.6707 13.216162,1.3527 19.824243,0 l 3.574612,-10.583644 -1.38896,-6.439723 -3.914341,1.199557 0.126274,1.894036 -16.98319,-0.252539 0.06313,-1.767767 -2.714785,-1.388959 -2.714785,6.12405 z"
           id="path3695"
           inkscape:connector-curvature="0"
           sodipodi:nodetypes="ccccccccccc" />
        <path
           style="fill:none;stroke:#999999;stroke-width:1px;stroke-linecap:butt;stroke-linejoin:miter;stroke-opacity:1"
           d="m 27.803252,45.363095 c 0,0 -4.293148,2.7779 -11.995561,-2.2729"
           id="path3697"
           inkscape:connector-curvature="0" />
        <path
           style="fill:none;stroke:#999999;stroke-width:1px;stroke-linecap:butt;stroke-linejoin:miter;stroke-opacity:1"
           d="m 41.945388,44.226695 c 0,0 -9.091373,3.6618 -11.111678,1.1364"
           id="path3699"
           inkscape:connector-curvature="0" />
        <path
           style="fill:none;stroke:#999999;stroke-width:1px;stroke-linecap:butt;stroke-linejoin:miter;stroke-opacity:1"
           d="m 29.318481,38.544595 c 0,0 -1.010153,5.6821 0.126269,6.0609"
           id="path3701"
           inkscape:connector-curvature="0" />
        <path
           sodipodi:nodetypes="cccc"
           inkscape:connector-curvature="0"
           id="path3703"
           d="m 25.089286,52.214286 c 0.116739,-3.408051 0.319783,-4.888951 3.928571,-6.25 3.442521,1.604644 3.1403,2.698669 3.21429,6.25 z"
           style="fill:#aa8800;stroke:#999999;stroke-width:1px;stroke-linecap:butt;stroke-linejoin:miter;stroke-opacity:1" />
      </g>
      <path
         sodipodi:nodetypes="cccc"
         inkscape:connector-curvature="0"
         id="path3705"
         d="m 158.07877,-39.908681 0.80357,-5.892857 -4.19642,1.875 0,2.053571"
         style="fill:#aa8800;stroke:#000000;stroke-width:1px;stroke-linecap:butt;stroke-linejoin:miter;stroke-opacity:1;display:inline" />
      <path
         sodipodi:nodetypes="cccc"
         inkscape:connector-curvature="0"
         id="path3707"
         d="m 134.37342,-40.622967 -0.80358,-5.892857 4.19643,1.875 0,2.053571"
         style="fill:#aa8800;stroke:#000000;stroke-width:1px;stroke-linecap:butt;stroke-linejoin:miter;stroke-opacity:1;display:inline" />
      <path
         sodipodi:nodetypes="ccscccc"
         inkscape:connector-curvature="0"
         id="path3689-9"
         d="m 136.76386,-43.980519 c 0,0 -4.41059,-1.87331 -9.27366,3.883686 -3.10707,4.898629 -5.56699,11.180491 -6.93467,15.36139 -0.7134,2.180814 -4.22108,2.013974 -2.9116,4.753714 3.49312,5.037046 7.09391,1.119256 6.566,-0.505104 1.50489,-0.491028 2.29457,-4.904842 2.73624,-8.186979 2.03367,0.0179 7.06745,-5.65307 6.02962,-8.109407"
         style="fill:#ffeeaa;stroke:#000000;stroke-width:1px;stroke-linecap:butt;stroke-linejoin:miter;stroke-opacity:1;display:inline" />
      <g
         id="g3711"
         transform="translate(115.14286,-75.438285)"
         style="display:inline">
        <path
           inkscape:connector-curvature="0"
           id="path3713"
           d="m 14.355596,19.02985 c -9.5964488,2.3991 0.883883,9.8489 0.883883,9.8489"
           style="fill:#ffeeaa;stroke:#000000;stroke-width:1px;stroke-linecap:butt;stroke-linejoin:miter;stroke-opacity:1;display:inline" />
        <path
           inkscape:connector-curvature="0"
           id="path3715"
           d="m 49.644402,19.78755 c 9.596452,2.3991 -0.883883,9.8489 -0.883883,9.8489"
           style="fill:#ffeeaa;stroke:#000000;stroke-width:1px;stroke-linecap:butt;stroke-linejoin:miter;stroke-opacity:1;display:inline" />
        <g
           id="g3717"
           transform="matrix(-1,0,0,1,64.284446,-989.43783)"
           style="display:inline">
          <path
             sodipodi:nodetypes="ccccc"
             style="color:#000000;fill:#ffffff;fill-opacity:1;fill-rule:nonzero;stroke:none;stroke-width:1px;marker:none;visibility:visible;display:inline;overflow:visible;enable-background:accumulate"
             d="m 34.850263,25.614203 7.323606,0 c 0,0 4.798224,-6.313453 -1.38896,-6.69226 -2.166899,0.589975 -3.654589,1.85916 -4.987628,3.282995 -0.672484,1.076953 -1.267457,2.166825 -0.947018,3.409265 z"
             id="path3719"
             inkscape:connector-curvature="0"
             transform="translate(0,988.36218)" />
          <path
             style="fill:none;stroke:#000000;stroke-width:1px;stroke-linecap:butt;stroke-linejoin:miter;stroke-opacity:1"
             d="m 33.693537,1010.3349 c 0,0 3.535534,-5.3033 6.944798,-4.672"
             id="path3721"
             inkscape:connector-curvature="0" />
          <path
             inkscape:connector-curvature="0"
             id="path3723"
             d="m 39.238111,1011.7035 c 0,0.7323 -0.692524,1.3259 -1.546797,1.3259 -0.85427,0 -1.546794,-0.5936 -1.546794,-1.3259 0,-0.7322 0.692524,-1.3258 1.546794,-1.3258 0.854273,0 1.546797,0.5936 1.546797,1.3258 z"
             style="color:#000000;fill:#502d16;stroke:none;stroke-width:2;marker:none;visibility:visible;display:inline;overflow:visible;enable-background:accumulate" />
          <path
             style="fill:none;stroke:#000000;stroke-width:1px;stroke-linecap:butt;stroke-linejoin:miter;stroke-opacity:1"
             d="m 34.850263,1013.9764 7.323606,0 c 0,0 4.798224,-6.3135 -1.38896,-6.6923"
             id="path3725"
             inkscape:connector-curvature="0" />
        </g>
        <path
           inkscape:connector-curvature="0"
           id="path3727"
           d="m 31.65106,24.522585 c 0,0 -1.262691,3.9143 -2.146574,3.6618 l 2.248786,0.07536"
           style="fill:none;stroke:#000000;stroke-width:1px;stroke-linecap:butt;stroke-linejoin:miter;stroke-opacity:1;display:inline" />
        <path
           inkscape:connector-curvature="0"
           id="path3729"
           d="m 36.196747,30.583485 c -1.010153,1.389 -9.217642,1.389 -9.217642,1.389 0,0 8.712565,4.1668 8.712565,-0.8839"
           style="fill:#aa0000;stroke:#000000;stroke-width:1px;stroke-linecap:butt;stroke-linejoin:miter;stroke-opacity:1;display:inline" />
        <g
           id="g3731"
           transform="translate(-1.1957843,-989.43783)"
           style="display:inline">
          <path
             sodipodi:nodetypes="ccccc"
             style="color:#000000;fill:#ffffff;fill-opacity:1;fill-rule:nonzero;stroke:none;stroke-width:1px;marker:none;visibility:visible;display:inline;overflow:visible;enable-background:accumulate"
             d="m 34.850263,25.614203 7.323606,0 c 0,0 4.798224,-6.313453 -1.38896,-6.69226 -2.166899,0.589975 -3.654589,1.85916 -4.987628,3.282995 -0.672484,1.076953 -1.267457,2.166825 -0.947018,3.409265 z"
             id="path3733"
             inkscape:connector-curvature="0"
             transform="translate(0,988.36218)" />
          <path
             style="fill:none;stroke:#000000;stroke-width:1px;stroke-linecap:butt;stroke-linejoin:miter;stroke-opacity:1"
             d="m 33.693537,1010.3349 c 0,0 3.535534,-5.3033 6.944798,-4.672"
             id="path3735"
             inkscape:connector-curvature="0" />
          <path
             inkscape:connector-curvature="0"
             id="path3737"
             d="m 39.238111,1011.7035 c 0,0.7323 -0.692524,1.3259 -1.546797,1.3259 -0.85427,0 -1.546794,-0.5936 -1.546794,-1.3259 0,-0.7322 0.692524,-1.3258 1.546794,-1.3258 0.854273,0 1.546797,0.5936 1.546797,1.3258 z"
             style="color:#000000;fill:#502d16;stroke:none;stroke-width:2;marker:none;visibility:visible;display:inline;overflow:visible;enable-background:accumulate" />
          <path
             style="fill:none;stroke:#000000;stroke-width:1px;stroke-linecap:butt;stroke-linejoin:miter;stroke-opacity:1"
             d="m 34.850263,1013.9764 7.323606,0 c 0,0 4.798224,-6.3135 -1.38896,-6.6923"
             id="path3739"
             inkscape:connector-curvature="0" />
        </g>
        <path
           style="fill:#ffeeaa;stroke:#000000;stroke-width:1px;stroke-linecap:butt;stroke-linejoin:miter;stroke-opacity:1"
           d="m 14.355596,19.02985 c -9.5964488,2.3991 0.883883,9.8489 0.883883,9.8489"
           id="path3741"
           inkscape:connector-curvature="0" />
        <path
           style="fill:#ffeeaa;stroke:#000000;stroke-width:1px;stroke-linecap:butt;stroke-linejoin:miter;stroke-opacity:1"
           d="m 49.644402,19.78755 c 9.596452,2.3991 -0.883883,9.8489 -0.883883,9.8489"
           id="path3743"
           inkscape:connector-curvature="0" />
        <path
           inkscape:connector-curvature="0"
           style="color:#000000;fill:#ffeeaa;stroke:#000000;stroke-width:1;stroke-miterlimit:4;marker:none;visibility:visible;display:inline;overflow:visible;enable-background:accumulate"
           d="m 50.579733,23.683754 c 0,7.181487 -8.337447,13.003233 -18.622208,13.003233 -10.284761,0 -18.622207,-5.821746 -18.622207,-13.003233 0,-7.181486 8.337446,-13.003232 18.622207,-13.003232 10.284761,0 18.622208,5.821746 18.622208,13.003232 z"
           id="path3745" />
        <g
           transform="matrix(-1,0,0,1,64.284446,-989.43783)"
           id="g3747">
          <path
             transform="translate(0,988.36218)"
             inkscape:connector-curvature="0"
             id="path3749"
             d="m 34.850263,25.614203 7.323606,0 c 0,0 4.798224,-6.313453 -1.38896,-6.69226 -2.166899,0.589975 -3.654589,1.85916 -4.987628,3.282995 -0.672484,1.076953 -1.267457,2.166825 -0.947018,3.409265 z"
             style="color:#000000;fill:#ffffff;fill-opacity:1;fill-rule:nonzero;stroke:none;stroke-width:1px;marker:none;visibility:visible;display:inline;overflow:visible;enable-background:accumulate"
             sodipodi:nodetypes="ccccc" />
          <path
             inkscape:connector-curvature="0"
             id="path3751"
             d="m 33.693537,1010.3349 c 0,0 3.535534,-5.3033 6.944798,-4.672"
             style="fill:none;stroke:#000000;stroke-width:1px;stroke-linecap:butt;stroke-linejoin:miter;stroke-opacity:1" />
          <path
             style="color:#000000;fill:#502d16;stroke:none;stroke-width:2;marker:none;visibility:visible;display:inline;overflow:visible;enable-background:accumulate"
             d="m 39.238111,1011.7035 c 0,0.7323 -0.692524,1.3259 -1.546797,1.3259 -0.85427,0 -1.546794,-0.5936 -1.546794,-1.3259 0,-0.7322 0.692524,-1.3258 1.546794,-1.3258 0.854273,0 1.546797,0.5936 1.546797,1.3258 z"
             id="path3753"
             inkscape:connector-curvature="0" />
          <path
             inkscape:connector-curvature="0"
             id="path3755"
             d="m 34.850263,1013.9764 7.323606,0 c 0,0 4.798224,-6.3135 -1.38896,-6.6923"
             style="fill:none;stroke:#000000;stroke-width:1px;stroke-linecap:butt;stroke-linejoin:miter;stroke-opacity:1" />
        </g>
        <path
           style="fill:none;stroke:#000000;stroke-width:1px;stroke-linecap:butt;stroke-linejoin:miter;stroke-opacity:1"
           d="m 31.65106,24.522585 c 0,0 -1.262691,3.9143 -2.146574,3.6618 l 2.248786,0.07536"
           id="path3757"
           inkscape:connector-curvature="0" />
        <path
           style="fill:#aa0000;stroke:#000000;stroke-width:1px;stroke-linecap:butt;stroke-linejoin:miter;stroke-opacity:1"
           d="m 36.196747,30.583485 c -1.010153,1.389 -9.217642,1.389 -9.217642,1.389 0,0 8.712565,4.1668 8.712565,-0.8839"
           id="path3759"
           inkscape:connector-curvature="0" />
        <g
           transform="translate(-1.1957843,-989.43783)"
           id="g3761">
          <path
             transform="translate(0,988.36218)"
             inkscape:connector-curvature="0"
             id="path3763"
             d="m 34.850263,25.614203 7.323606,0 c 0,0 4.798224,-6.313453 -1.38896,-6.69226 -2.166899,0.589975 -3.654589,1.85916 -4.987628,3.282995 -0.672484,1.076953 -1.267457,2.166825 -0.947018,3.409265 z"
             style="color:#000000;fill:#ffffff;fill-opacity:1;fill-rule:nonzero;stroke:none;stroke-width:1px;marker:none;visibility:visible;display:inline;overflow:visible;enable-background:accumulate"
             sodipodi:nodetypes="ccccc" />
          <path
             inkscape:connector-curvature="0"
             id="path3765"
             d="m 33.693537,1010.3349 c 0,0 3.535534,-5.3033 6.944798,-4.672"
             style="fill:none;stroke:#000000;stroke-width:1px;stroke-linecap:butt;stroke-linejoin:miter;stroke-opacity:1" />
          <path
             style="color:#000000;fill:#502d16;stroke:none;stroke-width:2;marker:none;visibility:visible;display:inline;overflow:visible;enable-background:accumulate"
             d="m 39.238111,1011.7035 c 0,0.7323 -0.692524,1.3259 -1.546797,1.3259 -0.85427,0 -1.546794,-0.5936 -1.546794,-1.3259 0,-0.7322 0.692524,-1.3258 1.546794,-1.3258 0.854273,0 1.546797,0.5936 1.546797,1.3258 z"
             id="path3767"
             inkscape:connector-curvature="0" />
          <path
             inkscape:connector-curvature="0"
             id="path3769"
             d="m 34.850263,1013.9764 7.323606,0 c 0,0 4.798224,-6.3135 -1.38896,-6.6923"
             style="fill:none;stroke:#000000;stroke-width:1px;stroke-linecap:butt;stroke-linejoin:miter;stroke-opacity:1" />
        </g>
        <path
           style="color:#000000;fill:#502d16;fill-opacity:1;fill-rule:nonzero;stroke:#28170b;stroke-width:1px;marker:none;visibility:visible;display:inline;overflow:visible;enable-background:accumulate"
           d="M 16.664118,7.9304242 C 21.672483,1.4098545 28.33544,1.7144791 34.610109,0.41741454 31.363023,2.3412552 28.59574,4.6561325 28.249306,7.2359443 26.465606,2.4950301 39.72061,3.0456138 45.879624,0.54368387 43.198761,3.7544247 39.990975,6.9212552 41.19583,10.455805 36.88599,4.0342274 47.849388,4.1918907 53.495227,2.0589128 51.695878,5.552357 47.35454,9.0458012 49.31651,12.539245 c 2.079796,3.742376 1.930182,5.863363 2.261006,8.333759 l -3.164619,-1.065396 c -2.867819,-1.426565 -4.884571,-3.36377 -6.068807,-5.800485 -0.916529,3.415953 -5.447696,5.11971 -9.422829,7.086851 1.086892,-2.948758 1.852827,-6.004502 1.43631,-9.454396 -2.463305,2.365793 -4.064434,4.551965 -10.369847,7.718197 0.251834,-2.020305 0.901711,-4.040611 -0.441942,-6.060916 l -7.007933,5.934647 c -1.424715,0.954806 -3.125801,2.195384 -5.555839,2.146574 1.383734,-4.668117 2.518356,-9.426819 5.682108,-13.4476558 z"
           id="path3771"
           inkscape:connector-curvature="0"
           sodipodi:nodetypes="ccccccccccccccccc" />
      </g>
      <path
         style="fill:#000080;stroke:#000000;stroke-width:1px;stroke-linecap:butt;stroke-linejoin:miter;stroke-opacity:1;display:inline"
         d="m 145.4074,-16.688285 -1.60714,-2.142857 -3.75,0 -3.03571,2.321429"
         id="path3773"
         inkscape:connector-curvature="0"
         sodipodi:nodetypes="cccc" />
      <path
         style="fill:none;stroke:#000080;stroke-width:1px;stroke-linecap:butt;stroke-linejoin:miter;stroke-opacity:1;display:inline"
         d="m 153.26455,-18.831142 -4.82143,0.357143"
         id="path3775"
         inkscape:connector-curvature="0" />
    </g>
  </g>
  <g
     inkscape:groupmode="layer"
     id="layer2"
     inkscape:label="Anim0"
     style="display:inline"
     transform="translate(0,46)">
    <g
       transform="matrix(-0.8456395,-0.16198877,0.16198877,-0.8456395,-51.534658,900.29675)"
       style="display:inline"
       id="g3791-1-3-1-9">
      <path
         sodipodi:nodetypes="cccccc"
         inkscape:connector-curvature="0"
         id="rect3004-00-7-9-0"
         d="m 9.1619154,1003.6564 -1.4861334,-7.97812 7.799586,1.6647 34.789349,34.78932 -6.313452,6.3135 z"
         style="color:#000000;fill:url(#linearGradient4804);fill-opacity:1;fill-rule:nonzero;stroke:#999999;stroke-width:1.15399003;marker:none;visibility:visible;display:inline;overflow:visible;enable-background:accumulate" />
      <path
         inkscape:connector-curvature="0"
         id="rect3006-4-6-7-1"
         d="m 39.57261,1042.475 14.647207,-14.6472 1.894035,1.894 -14.647207,14.6472 z"
         style="color:#000000;fill:#803300;fill-opacity:1;fill-rule:nonzero;stroke:#552200;stroke-width:1.15399003;stroke-linecap:butt;stroke-linejoin:miter;stroke-miterlimit:4;stroke-opacity:1;stroke-dashoffset:0;marker:none;visibility:visible;display:inline;overflow:visible;enable-background:accumulate" />
      <path
         inkscape:connector-curvature="0"
         id="rect3008-9-1-8-4"
         d="m 47.854069,1038.0682 2.020303,-2.0203 8.081219,8.0812 -2.020303,2.0203 z"
         style="color:#000000;fill:#803300;fill-opacity:1;fill-rule:nonzero;stroke:#552200;stroke-width:1.15399003;stroke-linecap:butt;stroke-linejoin:miter;stroke-miterlimit:4;stroke-opacity:1;stroke-dashoffset:0;marker:none;visibility:visible;display:inline;overflow:visible;enable-background:accumulate" />
      <path
         sodipodi:nodetypes="ccc"
         inkscape:connector-curvature="0"
         id="path3013-2-5-9-6"
         d="M 9.9999999,997.89789 13.75,999.68361 45.714286,1032.005"
         style="fill:none;stroke:#999999;stroke-width:1px;stroke-linecap:butt;stroke-linejoin:miter;stroke-opacity:1" />
    </g>
  </g>
  <g
     inkscape:groupmode="layer"
     id="layer3"
     inkscape:label="Anim1"
     style="display:inline"
     transform="translate(0,46)">
    <g
       id="g3949-1"
       transform="matrix(-1.868984,0,0,-1.868984,117.26488,63.841262)">
      <g
         id="g3944-5">
        <path
           style="fill:#ececec;stroke:none"
           d="M 7.8286822,5.6636905 C 23.570226,4.9060761 46.42101,-2.5164507 55.053314,3.3908473"
           id="path3938-8"
           inkscape:connector-curvature="0"
           sodipodi:nodetypes="cc" />
        <path
           style="fill:#ececec;stroke:none"
           d="M 11.237947,10.966991 C 24.959186,10.293556 43.594095,3.9505014 52.401663,8.9466863"
           id="path3940-3"
           inkscape:connector-curvature="0"
           sodipodi:nodetypes="cc" />
        <path
           style="fill:#ececec;stroke:none"
           d="m 15.783634,15.512678 c 10.503865,-0.4323 26.150259,-5.363759 31.693536,-1.515229"
           id="path3942-4"
           inkscape:connector-curvature="0"
           sodipodi:nodetypes="cc" />
      </g>
    </g>
    <g
       transform="matrix(-0.28012685,-0.81417165,0.81417165,-0.28012685,-803.77021,346.29104)"
       style="display:inline"
       id="g3791-1-3-1">
      <path
         sodipodi:nodetypes="cccccc"
         inkscape:connector-curvature="0"
         id="rect3004-00-7-9"
         d="m 9.1619154,1003.6564 -1.4861334,-7.97812 7.799586,1.6647 34.789349,34.78932 -6.313452,6.3135 z"
         style="color:#000000;fill:url(#linearGradient4148-4);fill-opacity:1;fill-rule:nonzero;stroke:#999999;stroke-width:1.15399003;marker:none;visibility:visible;display:inline;overflow:visible;enable-background:accumulate" />
      <path
         inkscape:connector-curvature="0"
         id="rect3006-4-6-7"
         d="m 39.57261,1042.475 14.647207,-14.6472 1.894035,1.894 -14.647207,14.6472 z"
         style="color:#000000;fill:#803300;fill-opacity:1;fill-rule:nonzero;stroke:#552200;stroke-width:1.15399003;stroke-linecap:butt;stroke-linejoin:miter;stroke-miterlimit:4;stroke-opacity:1;stroke-dashoffset:0;marker:none;visibility:visible;display:inline;overflow:visible;enable-background:accumulate" />
      <path
         inkscape:connector-curvature="0"
         id="rect3008-9-1-8"
         d="m 47.854069,1038.0682 2.020303,-2.0203 8.081219,8.0812 -2.020303,2.0203 z"
         style="color:#000000;fill:#803300;fill-opacity:1;fill-rule:nonzero;stroke:#552200;stroke-width:1.15399003;stroke-linecap:butt;stroke-linejoin:miter;stroke-miterlimit:4;stroke-opacity:1;stroke-dashoffset:0;marker:none;visibility:visible;display:inline;overflow:visible;enable-background:accumulate" />
      <path
         sodipodi:nodetypes="ccc"
         inkscape:connector-curvature="0"
         id="path3013-2-5-9"
         d="M 9.9999999,997.89789 13.75,999.68361 45.714286,1032.005"
         style="fill:none;stroke:#999999;stroke-width:1px;stroke-linecap:butt;stroke-linejoin:miter;stroke-opacity:1" />
    </g>
  </g>
</svg>
