<?xml version="1.0" encoding="UTF-8" standalone="no"?>
<!-- Created with Inkscape (http://www.inkscape.org/) -->

<svg
   xmlns:dc="http://purl.org/dc/elements/1.1/"
   xmlns:cc="http://creativecommons.org/ns#"
   xmlns:rdf="http://www.w3.org/1999/02/22-rdf-syntax-ns#"
   xmlns:svg="http://www.w3.org/2000/svg"
   xmlns="http://www.w3.org/2000/svg"
   xmlns:sodipodi="http://sodipodi.sourceforge.net/DTD/sodipodi-0.dtd"
   xmlns:inkscape="http://www.inkscape.org/namespaces/inkscape"
   width="64"
   height="64"
   id="svg2"
   version="1.1"
   inkscape:version="0.48.3.1 r9886"
   sodipodi:docname="sorcerer.svg"
   inkscape:export-filename="/home/jami/workspace/rogue-like/art/sorcerer/walk-n0.png"
   inkscape:export-xdpi="90"
   inkscape:export-ydpi="90">
  <defs
     id="defs4" />
  <sodipodi:namedview
     id="base"
     pagecolor="#000000"
     bordercolor="#666666"
     borderopacity="1.0"
     inkscape:pageopacity="0"
     inkscape:pageshadow="2"
     inkscape:zoom="11.2"
     inkscape:cx="46.495568"
     inkscape:cy="32.552566"
     inkscape:document-units="px"
     inkscape:current-layer="layer1"
     showgrid="false"
     inkscape:window-width="1920"
     inkscape:window-height="1020"
     inkscape:window-x="1920"
     inkscape:window-y="32"
     inkscape:window-maximized="1" />
  <metadata
     id="metadata7">
    <rdf:RDF>
      <cc:Work
         rdf:about="">
        <dc:format>image/svg+xml</dc:format>
        <dc:type
           rdf:resource="http://purl.org/dc/dcmitype/StillImage" />
        <dc:title></dc:title>
      </cc:Work>
    </rdf:RDF>
  </metadata>
  <g
     inkscape:label="Layer 1"
     inkscape:groupmode="layer"
     id="layer1"
     transform="translate(0,-988.36218)">
    <path
       style="color:#000000;fill:#000000;fill-opacity:1;fill-rule:nonzero;stroke:#000000;stroke-width:1;stroke-linecap:butt;stroke-linejoin:miter;stroke-miterlimit:4;stroke-opacity:1;stroke-dashoffset:0;marker:none;visibility:visible;display:inline;overflow:visible;enable-background:accumulate"
       d="m 26.397321,1015.4336 -5.602678,-1.3393 0.803571,-12.5 4.799107,-6.24998 5.691965,-0.80357 5.513392,0.80357 5.15625,6.33928 0.446429,12.4107 -5.198103,1.3393 z"
       id="rect3754-4"
       inkscape:connector-curvature="0"
       sodipodi:nodetypes="cccccccccc" />
    <path
       style="color:#000000;fill:#333333;fill-opacity:1;fill-rule:nonzero;stroke:#000000;stroke-width:1;stroke-linecap:butt;stroke-linejoin:miter;stroke-miterlimit:4;stroke-opacity:1;stroke-dashoffset:0;marker:none;visibility:visible;display:inline;overflow:visible;enable-background:accumulate"
       d="m 19.1875,1012.4425 25.625,0 1.830357,1.9866 -1.5625,37.4331 -6.540179,0 -6.540178,0 -6.540179,0 -6.540178,0 -1.428571,-37.5223 z"
       id="rect3750"
       inkscape:connector-curvature="0"
       sodipodi:nodetypes="cccccccccc" />
    <path
       style="fill:#333333;stroke:#000000;stroke-width:1px;stroke-linecap:butt;stroke-linejoin:miter;stroke-opacity:1"
       d="m 31.160714,1013.9693 -0.267857,10.4465 c 0.214983,4.7354 -0.864323,8.8237 -2.053571,12.8571 0.311421,5.1309 -1.853977,9.5864 -4.107143,14.0179 -2.492513,0.4947 -4.350199,0.037 -5.892858,-0.8929 -1.259424,-0.9663 -2.700535,-0.4791 -4.196428,0.4464 -2.098689,-1.1854 -2.139243,-2.5996 -2.142857,-4.0178 1.177163,-4.1369 1.221322,-8.2738 0.982143,-12.4107 -0.676939,-7.4454 0.72713,-13.5034 2.142857,-19.5536 1.304275,-2.5875 2.838022,-2.6508 4.375,-2.6786 3.149074,2.0232 7.068349,2.1208 11.160714,1.7857 z"
       id="path3758"
       inkscape:connector-curvature="0"
       sodipodi:nodetypes="ccccccccccc" />
    <path
       style="fill:none;stroke:#1a1a1a;stroke-width:1px;stroke-linecap:butt;stroke-linejoin:miter;stroke-opacity:1"
       d="m 29.732143,36.946429 c -1.053271,3.042268 -2.288613,5.720392 -4.285714,6.875"
       id="path3760"
       inkscape:connector-curvature="0"
       transform="translate(0,988.36218)"
       sodipodi:nodetypes="cc" />
    <path
       style="fill:none;stroke:#1a1a1a;stroke-width:1px;stroke-linecap:butt;stroke-linejoin:miter;stroke-opacity:1"
       d="M 27.321429,50.428571 C 26.713869,52.984493 25.92627,55.270357 24.375,56.410714"
       id="path3762"
       inkscape:connector-curvature="0"
       transform="translate(0,988.36218)"
       sodipodi:nodetypes="cc" />
    <path
       style="fill:none;stroke:#1a1a1a;stroke-width:1px;stroke-linecap:butt;stroke-linejoin:miter;stroke-opacity:1"
       d="m 14.821429,62.214286 c -0.803306,-2.446349 -0.05456,-4.427084 1.517857,-6.160715"
       id="path3764"
       inkscape:connector-curvature="0"
       transform="translate(0,988.36218)"
       sodipodi:nodetypes="cc" />
    <path
       style="fill:none;stroke:#1a1a1a;stroke-width:1px;stroke-linecap:butt;stroke-linejoin:miter;stroke-opacity:1"
       d="m 16.964286,33.375 c -1.330397,2.888386 -1.973129,5.891383 -1.875,9.017857"
       id="path3766"
       inkscape:connector-curvature="0"
       transform="translate(0,988.36218)"
       sodipodi:nodetypes="cc" />
    <path
       style="fill:#333333;stroke:#000000;stroke-width:1px;stroke-linecap:butt;stroke-linejoin:miter;stroke-opacity:1"
       d="m 32.5,1013.9693 0.267857,10.4465 c -0.214983,4.7354 0.864323,8.8237 2.053571,12.8571 -0.311421,5.1309 1.853977,9.5864 4.107143,14.0179 2.492513,0.4947 4.350199,0.037 5.892858,-0.8929 1.259424,-0.9663 2.700535,-0.4791 4.196428,0.4464 2.098689,-1.1854 2.139243,-2.5996 2.142857,-4.0178 -1.177163,-4.1369 -1.221322,-8.2738 -0.982143,-12.4107 0.676939,-7.4454 -0.72713,-13.5034 -2.142857,-19.5536 -1.304275,-2.5875 -2.838022,-2.6508 -4.375,-2.6786 -3.149074,2.0232 -7.068349,2.1208 -11.160714,1.7857 z"
       id="path3758-1"
       inkscape:connector-curvature="0"
       sodipodi:nodetypes="ccccccccccc" />
    <path
       style="color:#000000;fill:#333333;fill-opacity:1;fill-rule:nonzero;stroke:#000000;stroke-width:1;stroke-linecap:butt;stroke-linejoin:miter;stroke-miterlimit:4;stroke-opacity:1;stroke-dashoffset:0;marker:none;visibility:visible;display:inline;overflow:visible;enable-background:accumulate"
       d="m 21.598214,1001.5943 c 1.101168,-2.13872 1.670748,-4.3365 4.799107,-6.24998 2.164564,-0.93596 3.912703,-1.5005 5.602679,-1.25 1.470553,-0.34422 3.417959,0.40394 5.602678,1.25 2.613849,1.36718 3.94791,3.80085 5.15625,6.33928 l 0.446429,12.4107 -5.198103,1.3393 c 2.362481,-2.4827 1.827826,-7.3358 1.676897,-11.875 -0.78055,-1.8781 -1.709639,-3.68201 -3.431919,-5.08929 -1.555423,-0.59891 -3.092667,-1.10693 -4.414063,-0.53571 -1.263021,-0.32888 -2.526041,0.31086 -3.789062,1.16071 -1.225183,1.46989 -2.400608,2.97299 -2.924107,4.91069 -0.905741,4.009 -2.404695,8.107 1.272321,11.4286 -1.958009,0.3676 -3.880025,0.4113 -5.602678,-1.3393 -0.0843,-4.3427 -0.47087,-8.8366 0.803571,-12.5 z"
       id="rect3754"
       inkscape:connector-curvature="0"
       sodipodi:nodetypes="ccccccccccccccc" />
    <path
       style="fill:none;stroke:#1a1a1a;stroke-width:1px;stroke-linecap:butt;stroke-linejoin:miter;stroke-opacity:1"
       d="m 33.928571,1025.3086 c 1.053271,3.0423 2.288613,5.7204 4.285714,6.875"
       id="path3760-0"
       inkscape:connector-curvature="0"
       sodipodi:nodetypes="cc" />
    <path
       style="fill:none;stroke:#1a1a1a;stroke-width:1px;stroke-linecap:butt;stroke-linejoin:miter;stroke-opacity:1"
       d="m 36.339285,1038.7907 c 0.60756,2.556 1.395159,4.8418 2.946429,5.9822"
       id="path3762-5"
       inkscape:connector-curvature="0"
       sodipodi:nodetypes="cc" />
    <path
       style="fill:none;stroke:#1a1a1a;stroke-width:1px;stroke-linecap:butt;stroke-linejoin:miter;stroke-opacity:1"
       d="m 48.839285,1050.5764 c 0.803306,-2.4463 0.05456,-4.427 -1.517857,-6.1607"
       id="path3764-1"
       inkscape:connector-curvature="0"
       sodipodi:nodetypes="cc" />
    <path
       style="fill:none;stroke:#1a1a1a;stroke-width:1px;stroke-linecap:butt;stroke-linejoin:miter;stroke-opacity:1"
       d="m 46.696428,1021.7372 c 1.330397,2.8883 1.973129,5.8913 1.875,9.0178"
       id="path3766-6"
       inkscape:connector-curvature="0"
       sodipodi:nodetypes="cc" />
  </g>
</svg>
