<?xml version="1.0" encoding="UTF-8" standalone="no"?>
<!-- Created with Inkscape (http://www.inkscape.org/) -->

<svg
   xmlns:dc="http://purl.org/dc/elements/1.1/"
   xmlns:cc="http://creativecommons.org/ns#"
   xmlns:rdf="http://www.w3.org/1999/02/22-rdf-syntax-ns#"
   xmlns:svg="http://www.w3.org/2000/svg"
   xmlns="http://www.w3.org/2000/svg"
   xmlns:sodipodi="http://sodipodi.sourceforge.net/DTD/sodipodi-0.dtd"
   xmlns:inkscape="http://www.inkscape.org/namespaces/inkscape"
   width="64"
   height="64"
   id="svg2"
   version="1.1"
   inkscape:version="0.48.3.1 r9886"
   sodipodi:docname="slime.svg"
   inkscape:export-filename="/home/jami/workspace/rogue-like/art/slime/walk1.png"
   inkscape:export-xdpi="90"
   inkscape:export-ydpi="90">
  <defs
     id="defs4" />
  <sodipodi:namedview
     id="base"
     pagecolor="#000000"
     bordercolor="#666666"
     borderopacity="1.0"
     inkscape:pageopacity="0"
     inkscape:pageshadow="2"
     inkscape:zoom="11.2"
     inkscape:cx="-6.2767856"
     inkscape:cy="34.390847"
     inkscape:document-units="px"
     inkscape:current-layer="g3757"
     showgrid="false"
     inkscape:window-width="1920"
     inkscape:window-height="1020"
     inkscape:window-x="1920"
     inkscape:window-y="32"
     inkscape:window-maximized="1" />
  <metadata
     id="metadata7">
    <rdf:RDF>
      <cc:Work
         rdf:about="">
        <dc:format>image/svg+xml</dc:format>
        <dc:type
           rdf:resource="http://purl.org/dc/dcmitype/StillImage" />
        <dc:title></dc:title>
      </cc:Work>
    </rdf:RDF>
  </metadata>
  <g
     inkscape:label="walk0"
     inkscape:groupmode="layer"
     id="layer1"
     transform="translate(0,-988.36218)"
     style="display:none">
    <path
       style="color:#000000;fill:#330080;fill-opacity:1;fill-rule:nonzero;stroke:#220055;stroke-width:1;stroke-miterlimit:4;marker:none;visibility:visible;display:inline;overflow:visible;enable-background:accumulate"
       d="m 60.089285,51.63393 c 2.538299,3.549908 -12.512042,7.901786 -27.946428,7.901786 -15.434387,0 -31.0309428,-4.814622 -27.9464287,-7.901786 C 5.6607465,50.168354 20.069257,9.4301197 32.142857,7.732144 42.214335,6.3157376 57.044329,47.375442 60.089285,51.63393 z"
       id="path3750"
       inkscape:connector-curvature="0"
       sodipodi:nodetypes="sssss"
       transform="translate(0,988.36218)" />
    <path
       style="fill:none;stroke:#220055;stroke-width:1px;stroke-linecap:butt;stroke-linejoin:miter;stroke-opacity:1"
       d="M 21.785714,25.875 C 18.839286,29.982143 20,31.5 20,31.5"
       id="path3761"
       inkscape:connector-curvature="0"
       transform="translate(0,988.36218)" />
    <path
       style="fill:none;stroke:#220055;stroke-width:1px;stroke-linecap:butt;stroke-linejoin:miter;stroke-opacity:1;display:inline"
       d="m 43.637297,1031.514 c 2.946428,-4.1071 1.785714,-5.625 1.785714,-5.625"
       id="path3761-1"
       inkscape:connector-curvature="0" />
    <path
       style="fill:none;stroke:#220055;stroke-width:1px;stroke-linecap:butt;stroke-linejoin:miter;stroke-opacity:1;display:inline"
       d="m 9.3744112,1039.4744 c 3.7564828,3.3821 5.3932828,2.3962 5.3932828,2.3962"
       id="path3761-1-8"
       inkscape:connector-curvature="0" />
    <path
       style="fill:none;stroke:#220055;stroke-width:1px;stroke-linecap:butt;stroke-linejoin:miter;stroke-opacity:1;display:inline"
       d="m 57.071641,1040.2937 c -3.756482,3.3821 -5.393282,2.3962 -5.393282,2.3962"
       id="path3761-1-8-4"
       inkscape:connector-curvature="0" />
  </g>
  <g
     style="display:inline"
     transform="translate(0,-988.36218)"
     id="g3757"
     inkscape:groupmode="layer"
     inkscape:label="walk1">
    <path
       sodipodi:nodetypes="sssss"
       inkscape:connector-curvature="0"
       id="path3759"
       d="m 60.357142,56.00893 c 2.538299,3.549908 -12.779899,3.526786 -28.214285,3.526786 -15.434387,0 -31.56665709,-1.243193 -28.482143,-4.330357 1.4643182,-1.465576 10.4264,-35.150239 22.5,-36.848215 10.071478,-1.416406 31.151472,33.393298 34.196428,37.651786 z"
       style="color:#000000;fill:#330080;fill-opacity:1;fill-rule:nonzero;stroke:#220055;stroke-width:1;stroke-miterlimit:4;marker:none;visibility:visible;display:inline;overflow:visible;enable-background:accumulate"
       transform="translate(0,988.36218)" />
    <path
       style="fill:none;stroke:#220055;stroke-width:1px;stroke-linecap:butt;stroke-linejoin:miter;stroke-opacity:1"
       d="m 31.696429,1004.4158 c 4.080412,0.4336 14.845715,13.2068 17.678571,17.0536"
       id="path3817"
       inkscape:connector-curvature="0"
       sodipodi:nodetypes="cc" />
    <path
       style="fill:none;stroke:#220055;stroke-width:1px;stroke-linecap:butt;stroke-linejoin:miter;stroke-opacity:1"
       d="m 30.446429,23.196428 c 3.75,2.232143 11.607143,12.232143 11.607143,12.232143"
       id="path3821"
       inkscape:connector-curvature="0"
       transform="translate(0,988.36218)" />
    <path
       style="fill:none;stroke:#220055;stroke-width:1px;stroke-linecap:butt;stroke-linejoin:miter;stroke-opacity:1"
       d="m 9.7321429,47.839286 c -2.1428571,5.982143 -4.5535715,8.125 -4.5535715,8.125"
       id="path3823"
       inkscape:connector-curvature="0"
       transform="translate(0,988.36218)"
       sodipodi:nodetypes="cc" />
    <path
       style="fill:none;stroke:#220055;stroke-width:1px;stroke-linecap:butt;stroke-linejoin:miter;stroke-opacity:1;display:inline"
       d="m 41.875,1035.4425 c 3.75,7.8106 14.732143,9.8821 14.732143,9.018"
       id="path3821-2"
       inkscape:connector-curvature="0"
       sodipodi:nodetypes="cc" />
    <path
       style="fill:none;stroke:#220055;stroke-width:1px;stroke-linecap:butt;stroke-linejoin:miter;stroke-opacity:1"
       d="m 24.732143,40.428571 c -2.053572,3.303572 -1.25,5 -1.25,5"
       id="path3843"
       inkscape:connector-curvature="0"
       transform="translate(0,988.36218)" />
  </g>
  <g
     transform="translate(0,-988.36218)"
     id="g3753"
     inkscape:groupmode="layer"
     inkscape:label="walk2"
     style="display:none">
    <path
       sodipodi:nodetypes="ssszs"
       inkscape:connector-curvature="0"
       id="path3755"
       d="m 62.089285,51.63393 c 0.530218,4.331706 -12.512042,7.901786 -27.946428,7.901786 -15.434387,0 -32.2166301,-3.546123 -31.9464287,-7.901786 C 2.5464123,45.992166 20.289927,30.478064 31.875,30.589287 43.460072,30.700509 60.795891,41.067318 62.089285,51.63393 z"
       style="color:#000000;fill:#330080;fill-opacity:1;fill-rule:nonzero;stroke:#220055;stroke-width:1;stroke-miterlimit:4;marker:none;visibility:visible;display:inline;overflow:visible;enable-background:accumulate"
       transform="translate(0,988.36218)" />
    <path
       style="fill:none;stroke:#220055;stroke-width:1px;stroke-linecap:butt;stroke-linejoin:miter;stroke-opacity:1"
       d="M 9.6428572,38.285714 C 12.985051,35.145491 16.286612,31.802106 20.089286,30.964286"
       id="path3879"
       inkscape:connector-curvature="0"
       transform="translate(0,988.36218)"
       sodipodi:nodetypes="cc" />
    <path
       style="fill:none;stroke:#220055;stroke-width:1px;stroke-linecap:butt;stroke-linejoin:miter;stroke-opacity:1;display:inline"
       d="m 58.125,1028.7908 c -3.342194,-3.1402 -6.643755,-6.4836 -10.446428,-7.3214"
       id="path3879-5"
       inkscape:connector-curvature="0"
       sodipodi:nodetypes="cc" />
    <path
       style="fill:none;stroke:#220055;stroke-width:1px;stroke-linecap:butt;stroke-linejoin:miter;stroke-opacity:1;display:inline"
       d="m 12.008929,1032.4515 c 3.342193,-3.1402 6.643754,-6.4836 10.446429,-7.3214"
       id="path3879-8"
       inkscape:connector-curvature="0"
       sodipodi:nodetypes="cc" />
    <path
       style="fill:none;stroke:#220055;stroke-width:1px;stroke-linecap:butt;stroke-linejoin:miter;stroke-opacity:1;display:inline"
       d="m 53.616072,1032.9872 c -3.342194,-3.1402 -6.643755,-6.4836 -10.446428,-7.3214"
       id="path3879-5-3"
       inkscape:connector-curvature="0"
       sodipodi:nodetypes="cc" />
    <path
       style="fill:none;stroke:#220055;stroke-width:1px;stroke-linecap:butt;stroke-linejoin:miter;stroke-opacity:1"
       d="m 6.0714286,51.946429 c 6.2045874,2.595123 12.6690434,4.475605 19.8214284,4.464285"
       id="path3935"
       inkscape:connector-curvature="0"
       transform="translate(0,988.36218)"
       sodipodi:nodetypes="cc" />
    <path
       style="fill:none;stroke:#220055;stroke-width:1px;stroke-linecap:butt;stroke-linejoin:miter;stroke-opacity:1;display:inline"
       d="m 37.678572,1044.8621 c 7.365301,0.4524 14.722614,-1.6851 21.249999,-4.1071"
       id="path3935-4"
       inkscape:connector-curvature="0"
       sodipodi:nodetypes="cc" />
  </g>
  <g
     inkscape:groupmode="layer"
     id="layer2"
     inkscape:label="walk3"
     style="display:none">
    <path
       sodipodi:nodetypes="sssss"
       inkscape:connector-curvature="0"
       id="path3759-3"
       d="m 3.5557403,56.00893 c -2.538299,3.549908 12.7798987,3.526786 28.2142847,3.526786 15.434387,0 31.566657,-1.243193 28.482143,-4.330357 -1.464318,-1.465576 -10.4264,-35.150239 -22.5,-36.848215 C 27.68069,16.940738 6.6006963,51.750442 3.5557403,56.00893 z"
       style="color:#000000;fill:#330080;fill-opacity:1;fill-rule:nonzero;stroke:#220055;stroke-width:1;stroke-miterlimit:4;marker:none;visibility:visible;display:inline;overflow:visible;enable-background:accumulate" />
    <path
       style="fill:none;stroke:#220055;stroke-width:1px;stroke-linecap:butt;stroke-linejoin:miter;stroke-opacity:1;display:inline"
       d="m 32.216453,16.05362 c -4.080412,0.4336 -14.845715,13.2068 -17.678571,17.0536"
       id="path3817-8"
       inkscape:connector-curvature="0"
       sodipodi:nodetypes="cc" />
    <path
       style="fill:none;stroke:#220055;stroke-width:1px;stroke-linecap:butt;stroke-linejoin:miter;stroke-opacity:1;display:inline"
       d="m 33.466453,23.196428 c -3.75,2.232143 -11.607143,12.232143 -11.607143,12.232143"
       id="path3821-21"
       inkscape:connector-curvature="0" />
    <path
       style="fill:none;stroke:#220055;stroke-width:1px;stroke-linecap:butt;stroke-linejoin:miter;stroke-opacity:1;display:inline"
       d="m 54.180739,47.839286 c 2.142858,5.982143 4.553572,8.125 4.553572,8.125"
       id="path3823-9"
       inkscape:connector-curvature="0"
       sodipodi:nodetypes="cc" />
    <path
       style="fill:none;stroke:#220055;stroke-width:1px;stroke-linecap:butt;stroke-linejoin:miter;stroke-opacity:1;display:inline"
       d="m 22.037882,47.08032 c -3.75,7.8106 -14.7321427,9.8821 -14.7321427,9.018"
       id="path3821-2-6"
       inkscape:connector-curvature="0"
       sodipodi:nodetypes="cc" />
    <path
       style="fill:none;stroke:#220055;stroke-width:1px;stroke-linecap:butt;stroke-linejoin:miter;stroke-opacity:1;display:inline"
       d="m 39.180739,40.428571 c 2.053572,3.303572 1.25,5 1.25,5"
       id="path3843-6"
       inkscape:connector-curvature="0" />
  </g>
</svg>
